{
    "prepare_queue": {
        "installed": [],
        "uninstalled": []
    },
    "config_munge": {
        "files": {
            "config.xml": {
                "parents": {
                    "/*": [
                        {
                            "xml": "<feature name=\"Badge\"><param name=\"android-package\" value=\"de.appplant.cordova.plugin.badge.Badge\" /></feature>",
                            "count": 1
                        }
                    ]
                }
            },
            "res/xml/config.xml": {
                "parents": {
                    "/*": [
                        {
                            "xml": "<feature name=\"Device\"><param name=\"android-package\" value=\"org.apache.cordova.device.Device\" /></feature>",
                            "count": 1
                        },
                        {
                            "xml": "<feature name=\"LocalNotification\"><param name=\"android-package\" value=\"de.appplant.cordova.plugin.localnotification.LocalNotification\" /></feature>",
                            "count": 1
                        },
                        {
                            "xml": "<feature name=\"Whitelist\"><param name=\"android-package\" value=\"org.apache.cordova.whitelist.WhitelistPlugin\" /><param name=\"onload\" value=\"true\" /></feature>",
                            "count": 1
                        }
                    ]
                }
            },
            "AndroidManifest.xml": {
                "parents": {
                    "/manifest/application": [
                        {
                            "xml": "<provider android:authorities=\"${applicationId}.provider\" android:exported=\"false\" android:grantUriPermissions=\"true\" android:name=\"de.appplant.cordova.plugin.notification.util.AssetProvider\"><meta-data android:name=\"android.support.FILE_PROVIDER_PATHS\" android:resource=\"@xml/localnotification_provider_paths\" /></provider>",
                            "count": 1
                        },
                        {
                            "xml": "<receiver android:exported=\"false\" android:name=\"de.appplant.cordova.plugin.localnotification.TriggerReceiver\" />",
                            "count": 1
                        },
                        {
                            "xml": "<receiver android:exported=\"false\" android:name=\"de.appplant.cordova.plugin.localnotification.ClearReceiver\" />",
                            "count": 1
                        },
                        {
                            "xml": "<activity android:exported=\"false\" android:launchMode=\"singleInstance\" android:name=\"de.appplant.cordova.plugin.localnotification.ClickReceiver\" android:theme=\"@android:style/Theme.Translucent\" />",
                            "count": 1
                        }
                    ],
                    "/manifest": [
                        {
                            "xml": "<uses-permission android:name=\"android.permission.WAKE_LOCK\" />",
                            "count": 1
                        }
                    ]
                }
            }
        }
    },
    "installed_plugins": {
        "cordova-plugin-badge": {
            "PACKAGE_NAME": "com.mapsense.todo"
        },
        "cordova-plugin-device": {
            "PACKAGE_NAME": "com.mapsense.todo"
        },
        "cordova-plugin-local-notification": {
            "PACKAGE_NAME": "com.mapsense.todo"
        },
        "cordova-plugin-whitelist": {
            "PACKAGE_NAME": "com.mapsense.todo"
        }
    },
    "dependent_plugins": {},
    "modules": [
        {
            "id": "cordova-plugin-badge.Badge",
            "file": "plugins/cordova-plugin-badge/www/badge.js",
            "pluginId": "cordova-plugin-badge",
            "clobbers": [
                "cordova.plugins.notification.badge"
            ]
        },
        {
            "id": "cordova-plugin-device.device",
            "file": "plugins/cordova-plugin-device/www/device.js",
            "pluginId": "cordova-plugin-device",
            "clobbers": [
                "device"
            ]
        },
        {
            "id": "cordova-plugin-local-notification.LocalNotification",
            "file": "plugins/cordova-plugin-local-notification/www/local-notification.js",
            "pluginId": "cordova-plugin-local-notification",
            "clobbers": [
                "cordova.plugins.notification.local"
            ]
        },
        {
            "id": "cordova-plugin-local-notification.LocalNotification.Core",
            "file": "plugins/cordova-plugin-local-notification/www/local-notification-core.js",
            "pluginId": "cordova-plugin-local-notification",
            "clobbers": [
                "cordova.plugins.notification.local.core",
                "plugin.notification.local.core"
            ]
        },
        {
            "id": "cordova-plugin-local-notification.LocalNotification.Util",
            "file": "plugins/cordova-plugin-local-notification/www/local-notification-util.js",
            "pluginId": "cordova-plugin-local-notification",
            "merges": [
                "cordova.plugins.notification.local.core",
                "plugin.notification.local.core"
            ]
        }
    ],
    "plugin_metadata": {
        "cordova-plugin-badge": "0.8.8",
        "cordova-plugin-device": "2.0.3",
        "cordova-plugin-local-notification": "0.9.0-beta.2",
        "cordova-plugin-whitelist": "1.3.4"
    }
}